{
  "responseHeader":{
    "status":0,
    "QTime":1,
    "params":{
      "q":"name:ipod",
      "defType":"edismax",
      "wt":"json",
      "debug.explain.structured":"true",
      "debugQuery":"on"}},
  "response":{"numFound":3,"start":0,"docs":[
      {
        "id":"IW-02",
        "name":["iPod & iPod Mini USB 2.0 Cable"],
        "manu":["Belkin"],
        "manu_id_s":"belkin",
        "cat":["electronics",
          "connector"],
        "features":["car power adapter for iPod, white"],
        "weight":[2.0],
        "price":[11.5],
        "popularity":[1],
        "inStock":[false],
        "store":["37.7752,-122.4232"],
        "manufacturedate_dt":"2006-02-14T23:55:59Z",
        "manu_str":["Belkin"],
        "_version_":1610329192266727424,
        "cat_str":["connector",
          "electronics"],
        "name_str":["iPod & iPod Mini USB 2.0 Cable"],
        "features_str":["car power adapter for iPod, white"],
        "store_str":["37.7752,-122.4232"]},
      {
        "id":"F8V7067-APL-KIT",
        "name":["Belkin Mobile Power Cord for iPod w/ Dock"],
        "manu":["Belkin"],
        "manu_id_s":"belkin",
        "cat":["electronics",
          "connector"],
        "features":["car power adapter, white"],
        "weight":[4.0],
        "price":[19.95],
        "popularity":[1],
        "inStock":[false],
        "store":["45.18014,-93.87741"],
        "manufacturedate_dt":"2005-08-01T16:30:25Z",
        "manu_str":["Belkin"],
        "_version_":1610329192264630272,
        "cat_str":["connector",
          "electronics"],
        "name_str":["Belkin Mobile Power Cord for iPod w/ Dock"],
        "features_str":["car power adapter, white"],
        "store_str":["45.18014,-93.87741"]},
      {
        "id":"MA147LL/A",
        "name":["Apple 60 GB iPod with Video Playback Black"],
        "manu":["Apple Computer Inc."],
        "manu_id_s":"apple",
        "cat":["electronics",
          "music"],
        "features":["iTunes, Podcasts, Audiobooks",
          "Stores up to 15,000 songs, 25,000 photos, or 150 hours of video",
          "2.5-inch, 320x240 color TFT LCD display with LED backlight",
          "Up to 20 hours of battery life",
          "Plays AAC, MP3, WAV, AIFF, Audible, Apple Lossless, H.264 video",
          "Notes, Calendar, Phone book, Hold button, Date display, Photo wallet, Built-in games, JPEG photo playback, Upgradeable firmware, USB 2.0 compatibility, Playback speed control, Rechargeable capability, Battery level indication"],
        "includes":["earbud headphones, USB cable"],
        "weight":[5.5],
        "price":[399.0],
        "popularity":[10],
        "inStock":[true],
        "store":["37.7752,-100.0232"],
        "manufacturedate_dt":"2005-10-12T08:00:00Z",
        "manu_str":["Apple Computer Inc."],
        "_version_":1610329192395702272,
        "cat_str":["electronics",
          "music"],
        "name_str":["Apple 60 GB iPod with Video Playback Black"],
        "includes_str":["earbud headphones, USB cable"],
        "features_str":["2.5-inch, 320x240 color TFT LCD display with LED backlight",
          "Notes, Calendar, Phone book, Hold button, Date display, Photo wallet, Built-in games, JPEG photo playback, Upgradeable firmware, USB 2.0 compatibility, Playback speed control, Rechargeable capability, Battery level indication",
          "Plays AAC, MP3, WAV, AIFF, Audible, Apple Lossless, H.264 video",
          "Stores up to 15,000 songs, 25,000 photos, or 150 hours of video",
          "Up to 20 hours of battery life",
          "iTunes, Podcasts, Audiobooks"],
        "store_str":["37.7752,-100.0232"]}]
  },
  "debug":{
    "rawquerystring":"name:ipod",
    "querystring":"name:ipod",
    "parsedquery":"+name:ipod",
    "parsedquery_toString":"+name:ipod",
    "explain":{
      "IW-02":{
        "match":true,
        "value":3.182955,
        "description":"weight(name:ipod in 4) [SchemaSimilarity], result of:",
        "details":[{
            "match":true,
            "value":3.182955,
            "description":"score(doc=4,freq=2.0 = termFreq=2.0\n), product of:",
            "details":[{
                "match":true,
                "value":2.330756,
                "description":"idf, computed as log(1 + (docCount - docFreq + 0.5) / (docFreq + 0.5)) from:",
                "details":[{
                    "match":true,
                    "value":3.0,
                    "description":"docFreq"},
                  {
                    "match":true,
                    "value":35.0,
                    "description":"docCount"}]},
              {
                "match":true,
                "value":1.365632,
                "description":"tfNorm, computed as (freq * (k1 + 1)) / (freq + k1 * (1 - b + b * fieldLength / avgFieldLength)) from:",
                "details":[{
                    "match":true,
                    "value":2.0,
                    "description":"termFreq=2.0"},
                  {
                    "match":true,
                    "value":1.2,
                    "description":"parameter k1"},
                  {
                    "match":true,
                    "value":0.75,
                    "description":"parameter b"},
                  {
                    "match":true,
                    "value":5.857143,
                    "description":"avgFieldLength"},
                  {
                    "match":true,
                    "value":6.0,
                    "description":"fieldLength"}]}]}]},
      "F8V7067-APL-KIT":{
        "match":true,
        "value":2.0273306,
        "description":"weight(name:ipod in 3) [SchemaSimilarity], result of:",
        "details":[{
            "match":true,
            "value":2.0273306,
            "description":"score(doc=3,freq=1.0 = termFreq=1.0\n), product of:",
            "details":[{
                "match":true,
                "value":2.330756,
                "description":"idf, computed as log(1 + (docCount - docFreq + 0.5) / (docFreq + 0.5)) from:",
                "details":[{
                    "match":true,
                    "value":3.0,
                    "description":"docFreq"},
                  {
                    "match":true,
                    "value":35.0,
                    "description":"docCount"}]},
              {
                "match":true,
                "value":0.8698168,
                "description":"tfNorm, computed as (freq * (k1 + 1)) / (freq + k1 * (1 - b + b * fieldLength / avgFieldLength)) from:",
                "details":[{
                    "match":true,
                    "value":1.0,
                    "description":"termFreq=1.0"},
                  {
                    "match":true,
                    "value":1.2,
                    "description":"parameter k1"},
                  {
                    "match":true,
                    "value":0.75,
                    "description":"parameter b"},
                  {
                    "match":true,
                    "value":5.857143,
                    "description":"avgFieldLength"},
                  {
                    "match":true,
                    "value":8.0,
                    "description":"fieldLength"}]}]}]},
      "MA147LL/A":{
        "match":true,
        "value":2.0273306,
        "description":"weight(name:ipod in 5) [SchemaSimilarity], result of:",
        "details":[{
            "match":true,
            "value":2.0273306,
            "description":"score(doc=5,freq=1.0 = termFreq=1.0\n), product of:",
            "details":[{
                "match":true,
                "value":2.330756,
                "description":"idf, computed as log(1 + (docCount - docFreq + 0.5) / (docFreq + 0.5)) from:",
                "details":[{
                    "match":true,
                    "value":3.0,
                    "description":"docFreq"},
                  {
                    "match":true,
                    "value":35.0,
                    "description":"docCount"}]},
              {
                "match":true,
                "value":0.8698168,
                "description":"tfNorm, computed as (freq * (k1 + 1)) / (freq + k1 * (1 - b + b * fieldLength / avgFieldLength)) from:",
                "details":[{
                    "match":true,
                    "value":1.0,
                    "description":"termFreq=1.0"},
                  {
                    "match":true,
                    "value":1.2,
                    "description":"parameter k1"},
                  {
                    "match":true,
                    "value":0.75,
                    "description":"parameter b"},
                  {
                    "match":true,
                    "value":5.857143,
                    "description":"avgFieldLength"},
                  {
                    "match":true,
                    "value":8.0,
                    "description":"fieldLength"}]}]}]}},
    "QParser":"ExtendedDismaxQParser",
    "altquerystring":null,
    "boost_queries":null,
    "parsed_boost_queries":[],
    "boostfuncs":null,
    "timing":{
      "time":1.0,
      "prepare":{
        "time":0.0,
        "query":{
          "time":0.0},
        "facet":{
          "time":0.0},
        "facet_module":{
          "time":0.0},
        "mlt":{
          "time":0.0},
        "highlight":{
          "time":0.0},
        "stats":{
          "time":0.0},
        "expand":{
          "time":0.0},
        "terms":{
          "time":0.0},
        "debug":{
          "time":0.0}},
      "process":{
        "time":0.0,
        "query":{
          "time":0.0},
        "facet":{
          "time":0.0},
        "facet_module":{
          "time":0.0},
        "mlt":{
          "time":0.0},
        "highlight":{
          "time":0.0},
        "stats":{
          "time":0.0},
        "expand":{
          "time":0.0},
        "terms":{
          "time":0.0},
        "debug":{
          "time":0.0}}}}}
