{
  "responseHeader":{
    "status":0,
    "QTime":0,
    "params":{
      "q":"name:solr",
      "defType":"edismax",
      "fl":"id,name",
      "wt":"json"}},
  "response":{"numFound":1,"start":0,"docs":[
      {
        "id":"SOLR1000",
        "name":["Solr, the Enterprise Search Server"]}]
  }}
